[1598451642.393][INFO]: Starting ChromeDriver 84.0.4147.30 (48b3e868b4cc0aa7e8149519690b6f6949e110a8-refs/branch-heads/4147@{#310}) on port 36998
[1598451642.393][INFO]: Please see https://chromedriver.chromium.org/security-considerations for suggestions on keeping ChromeDriver safe.
[1598451643.007][INFO]: [1128508806647bd3d693897be88dc624] COMMAND InitSession {
   "capabilities": {
      "firstMatch": [ {
         "acceptInsecureCerts": true,
         "browserName": "chrome",
         "goog:chromeOptions": {
            "args": [ "--proxy-bypass-list=\u003C-loopback>", "--disable-dev-shm-usage" ],
            "excludeSwitches": [ "enable-automation", "load-extension" ],
            "extensions": [  ],
            "prefs": {
               "credentials_enable_service": false,
               "download.default_directory": "C:\\Users\\Nikisha\\IdeaProjects\\YaMa\\build\\downloads\\1598451641973_9852_1",
               "plugins.always_open_pdf_externally": true
            }
         },
         "pageLoadStrategy": "normal"
      } ]
   },
   "desiredCapabilities": {
      "acceptInsecureCerts": true,
      "acceptSslCerts": true,
      "browserName": "chrome",
      "goog:chromeOptions": {
         "args": [ "--proxy-bypass-list=\u003C-loopback>", "--disable-dev-shm-usage" ],
         "excludeSwitches": [ "enable-automation", "load-extension" ],
         "extensions": [  ],
         "prefs": {
            "credentials_enable_service": false,
            "download.default_directory": "C:\\Users\\Nikisha\\IdeaProjects\\YaMa\\build\\downloads\\1598451641973_9852_1",
            "plugins.always_open_pdf_externally": true
         }
      },
      "handlesAlerts": true,
      "javascriptEnabled": true,
      "pageLoadStrategy": "normal",
      "takesScreenshot": true
   }
}
[1598451643.010][INFO]: Populating Preferences file: {
   "alternate_error_pages": {
      "enabled": false
   },
   "autofill": {
      "enabled": false
   },
   "browser": {
      "check_default_browser": false
   },
   "credentials_enable_service": false,
   "distribution": {
      "import_bookmarks": false,
      "import_history": false,
      "import_search_engine": false,
      "make_chrome_default_for_user": false,
      "skip_first_run_ui": true
   },
   "dns_prefetching": {
      "enabled": false
   },
   "download": {
      "default_directory": "C:\\Users\\Nikisha\\IdeaProjects\\YaMa\\build\\downloads\\1598451641973_9852_1"
   },
   "plugins": {
      "always_open_pdf_externally": true
   },
   "profile": {
      "content_settings": {
         "pattern_pairs": {
            "https://*,*": {
               "media-stream": {
                  "audio": "Default",
                  "video": "Default"
               }
            }
         }
      },
      "default_content_setting_values": {
         "geolocation": 1
      },
      "default_content_settings": {
         "geolocation": 1,
         "mouselock": 1,
         "notifications": 1,
         "popups": 1,
         "ppapi-broker": 1
      },
      "password_manager_enabled": false
   },
   "safebrowsing": {
      "enabled": false
   },
   "search": {
      "suggest_enabled": false
   },
   "translate": {
      "enabled": false
   }
}
[1598451643.016][INFO]: Populating Local State file: {
   "background_mode": {
      "enabled": false
   },
   "ssl": {
      "rev_checking": {
         "enabled": false
      }
   }
}
[1598451643.017][INFO]: Launching chrome: "C:\Program Files (x86)\Google\Chrome\Application\chrome.exe" --disable-background-networking --disable-client-side-phishing-detection --disable-default-apps --disable-dev-shm-usage --disable-hang-monitor --disable-popup-blocking --disable-prompt-on-repost --disable-sync --enable-blink-features=ShadowDOMV0 --enable-logging --ignore-certificate-errors --log-level=0 --no-first-run --password-store=basic --proxy-bypass-list=<-loopback> --remote-debugging-port=0 --test-type=webdriver --use-mock-keychain --user-data-dir="C:\Users\Nikisha\AppData\Local\Temp\scoped_dir9396_1778515132" data:,
[1598451643.459][INFO]: resolved localhost to ["::1","127.0.0.1"]
[1598451645.508][INFO]: resolved localhost to ["::1","127.0.0.1"]
[1598451647.557][INFO]: [1128508806647bd3d693897be88dc624] RESPONSE InitSession {
   "capabilities": {
      "acceptInsecureCerts": true,
      "browserName": "chrome",
      "browserVersion": "84.0.4147.135",
      "chrome": {
         "chromedriverVersion": "84.0.4147.30 (48b3e868b4cc0aa7e8149519690b6f6949e110a8-refs/branch-heads/4147@{#310})",
         "userDataDir": "C:\\Users\\Nikisha\\AppData\\Local\\Temp\\scoped_dir9396_1778515132"
      },
      "goog:chromeOptions": {
         "debuggerAddress": "localhost:58778"
      },
      "networkConnectionEnabled": false,
      "pageLoadStrategy": "normal",
      "platformName": "windows",
      "proxy": {

      },
      "setWindowRect": true,
      "strictFileInteractability": false,
      "timeouts": {
         "implicit": 0,
         "pageLoad": 300000,
         "script": 30000
      },
      "unhandledPromptBehavior": "dismiss and notify",
      "webauthn:virtualAuthenticators": true
   },
   "sessionId": "1128508806647bd3d693897be88dc624"
}
[1598451647.585][INFO]: [1128508806647bd3d693897be88dc624] COMMAND SetWindowRect {
   "height": 768,
   "width": 1366
}
[1598451647.586][INFO]: Waiting for pending navigations...
[1598451647.587][INFO]: Done waiting for pending navigations. Status: ok
[1598451647.697][INFO]: Waiting for pending navigations...
[1598451647.697][INFO]: Done waiting for pending navigations. Status: ok
[1598451647.697][INFO]: [1128508806647bd3d693897be88dc624] RESPONSE SetWindowRect {
   "height": 768,
   "width": 1366,
   "x": 10,
   "y": 10
}
[1598451647.702][INFO]: [1128508806647bd3d693897be88dc624] COMMAND Navigate {
   "url": "https://yandex.ru/"
}
[1598451647.702][INFO]: Waiting for pending navigations...
[1598451647.703][INFO]: Done waiting for pending navigations. Status: ok
[1598451648.087][INFO]: Waiting for pending navigations...
[1598451648.559][INFO]: Done waiting for pending navigations. Status: ok
[1598451648.559][INFO]: [1128508806647bd3d693897be88dc624] RESPONSE Navigate
[1598451648.595][INFO]: [1128508806647bd3d693897be88dc624] COMMAND FindElement {
   "using": "xpath",
   "value": "//input[@aria-label=\"Запрос\"]"
}
[1598451648.595][INFO]: Waiting for pending navigations...
[1598451648.596][INFO]: Done waiting for pending navigations. Status: ok
[1598451648.603][INFO]: Waiting for pending navigations...
[1598451648.604][INFO]: Done waiting for pending navigations. Status: ok
[1598451648.604][INFO]: [1128508806647bd3d693897be88dc624] RESPONSE FindElement {
   "element-6066-11e4-a52e-4f735466cecf": "604b9794-3928-4478-83ad-7c285ade9dc3"
}
[1598451648.627][INFO]: [1128508806647bd3d693897be88dc624] COMMAND ExecuteScript {
   "args": [ {
      "element-6066-11e4-a52e-4f735466cecf": "604b9794-3928-4478-83ad-7c285ade9dc3"
   } ],
   "script": "return (function(){return function(){var k=this;function l(a){return void 0!==a}function m(a){return\"string\"==typeof a}function aa(a,b){a=a.split(\".\");var c=k;a[0]in c||!c.execScript||c.execScript(..."
}
[1598451648.627][INFO]: Waiting for pending navigations...
[1598451648.627][INFO]: Done waiting for pending navigations. Status: ok
[1598451648.635][INFO]: Waiting for pending navigations...
[1598451648.643][INFO]: Done waiting for pending navigations. Status: ok
[1598451648.643][INFO]: [1128508806647bd3d693897be88dc624] RESPONSE ExecuteScript true
[1598451648.647][INFO]: [1128508806647bd3d693897be88dc624] COMMAND ClearElement {
   "id": "604b9794-3928-4478-83ad-7c285ade9dc3"
}
[1598451648.647][INFO]: Waiting for pending navigations...
[1598451648.657][INFO]: Done waiting for pending navigations. Status: ok
[1598451648.671][INFO]: 
	=== NOTE: ===
	The Clear command in ChromeDriver 2.43 and above
	has been updated to conform to the current standard,
	including raising blur event after clearing.

[1598451648.679][INFO]: Waiting for pending navigations...
[1598451648.680][INFO]: Done waiting for pending navigations. Status: ok
[1598451648.680][INFO]: [1128508806647bd3d693897be88dc624] RESPONSE ClearElement
[1598451648.685][INFO]: [1128508806647bd3d693897be88dc624] COMMAND TypeElement {
   "id": "604b9794-3928-4478-83ad-7c285ade9dc3",
   "text": "market yandex",
   "value": [ "m", "a", "r", "k", "e", "t", " ", "y", "a", "n", "d", "e", "x" ]
}
[1598451648.685][INFO]: Waiting for pending navigations...
[1598451648.686][INFO]: Done waiting for pending navigations. Status: ok
[1598451648.720][INFO]: Waiting for pending navigations...
[1598451648.726][INFO]: Done waiting for pending navigations. Status: ok
[1598451648.726][INFO]: [1128508806647bd3d693897be88dc624] RESPONSE TypeElement
[1598451648.729][INFO]: [1128508806647bd3d693897be88dc624] COMMAND FindElement {
   "using": "xpath",
   "value": "//div[text()=' - выбор товаров и места их покупки'] "
}
[1598451648.730][INFO]: Waiting for pending navigations...
[1598451648.817][INFO]: Done waiting for pending navigations. Status: ok
[1598451648.844][INFO]: Waiting for pending navigations...
[1598451648.845][INFO]: Done waiting for pending navigations. Status: ok
[1598451648.845][INFO]: [1128508806647bd3d693897be88dc624] RESPONSE FindElement ERROR no such element: Unable to locate element: {"method":"xpath","selector":"//div[text()=' - выбор товаров и места их покупки'] "}
  (Session info: chrome=84.0.4147.135)
[1598451649.068][INFO]: [1128508806647bd3d693897be88dc624] COMMAND FindElement {
   "using": "xpath",
   "value": "//div[text()=' - выбор товаров и места их покупки'] "
}
[1598451649.068][INFO]: Waiting for pending navigations...
[1598451649.103][INFO]: Done waiting for pending navigations. Status: ok
[1598451649.194][INFO]: Waiting for pending navigations...
[1598451649.197][INFO]: Done waiting for pending navigations. Status: ok
[1598451649.197][INFO]: [1128508806647bd3d693897be88dc624] RESPONSE FindElement ERROR no such element: Unable to locate element: {"method":"xpath","selector":"//div[text()=' - выбор товаров и места их покупки'] "}
  (Session info: chrome=84.0.4147.135)
[1598451649.410][INFO]: [1128508806647bd3d693897be88dc624] COMMAND FindElement {
   "using": "xpath",
   "value": "//div[text()=' - выбор товаров и места их покупки'] "
}
[1598451649.410][INFO]: Waiting for pending navigations...
[1598451649.410][INFO]: Done waiting for pending navigations. Status: ok
[1598451649.414][INFO]: Waiting for pending navigations...
[1598451649.414][INFO]: Done waiting for pending navigations. Status: ok
[1598451649.414][INFO]: [1128508806647bd3d693897be88dc624] RESPONSE FindElement ERROR no such element: Unable to locate element: {"method":"xpath","selector":"//div[text()=' - выбор товаров и места их покупки'] "}
  (Session info: chrome=84.0.4147.135)
[1598451649.627][INFO]: [1128508806647bd3d693897be88dc624] COMMAND FindElement {
   "using": "xpath",
   "value": "//div[text()=' - выбор товаров и места их покупки'] "
}
[1598451649.627][INFO]: Waiting for pending navigations...
[1598451649.627][INFO]: Done waiting for pending navigations. Status: ok
[1598451649.631][INFO]: Waiting for pending navigations...
[1598451649.631][INFO]: Done waiting for pending navigations. Status: ok
[1598451649.631][INFO]: [1128508806647bd3d693897be88dc624] RESPONSE FindElement ERROR no such element: Unable to locate element: {"method":"xpath","selector":"//div[text()=' - выбор товаров и места их покупки'] "}
  (Session info: chrome=84.0.4147.135)
[1598451649.845][INFO]: [1128508806647bd3d693897be88dc624] COMMAND FindElement {
   "using": "xpath",
   "value": "//div[text()=' - выбор товаров и места их покупки'] "
}
[1598451649.845][INFO]: Waiting for pending navigations...
[1598451649.845][INFO]: Done waiting for pending navigations. Status: ok
[1598451649.849][INFO]: Waiting for pending navigations...
[1598451649.849][INFO]: Done waiting for pending navigations. Status: ok
[1598451649.849][INFO]: [1128508806647bd3d693897be88dc624] RESPONSE FindElement ERROR no such element: Unable to locate element: {"method":"xpath","selector":"//div[text()=' - выбор товаров и места их покупки'] "}
  (Session info: chrome=84.0.4147.135)
[1598451650.064][INFO]: [1128508806647bd3d693897be88dc624] COMMAND FindElement {
   "using": "xpath",
   "value": "//div[text()=' - выбор товаров и места их покупки'] "
}
[1598451650.064][INFO]: Waiting for pending navigations...
[1598451650.065][INFO]: Done waiting for pending navigations. Status: ok
[1598451650.069][INFO]: Waiting for pending navigations...
[1598451650.069][INFO]: Done waiting for pending navigations. Status: ok
[1598451650.069][INFO]: [1128508806647bd3d693897be88dc624] RESPONSE FindElement ERROR no such element: Unable to locate element: {"method":"xpath","selector":"//div[text()=' - выбор товаров и места их покупки'] "}
  (Session info: chrome=84.0.4147.135)
[1598451650.284][INFO]: [1128508806647bd3d693897be88dc624] COMMAND FindElement {
   "using": "xpath",
   "value": "//div[text()=' - выбор товаров и места их покупки'] "
}
[1598451650.284][INFO]: Waiting for pending navigations...
[1598451650.285][INFO]: Done waiting for pending navigations. Status: ok
[1598451650.288][INFO]: Waiting for pending navigations...
[1598451650.290][INFO]: Done waiting for pending navigations. Status: ok
[1598451650.290][INFO]: [1128508806647bd3d693897be88dc624] RESPONSE FindElement ERROR no such element: Unable to locate element: {"method":"xpath","selector":"//div[text()=' - выбор товаров и места их покупки'] "}
  (Session info: chrome=84.0.4147.135)
[1598451650.504][INFO]: [1128508806647bd3d693897be88dc624] COMMAND FindElement {
   "using": "xpath",
   "value": "//div[text()=' - выбор товаров и места их покупки'] "
}
[1598451650.504][INFO]: Waiting for pending navigations...
[1598451650.504][INFO]: Done waiting for pending navigations. Status: ok
[1598451650.508][INFO]: Waiting for pending navigations...
[1598451650.509][INFO]: Done waiting for pending navigations. Status: ok
[1598451650.509][INFO]: [1128508806647bd3d693897be88dc624] RESPONSE FindElement ERROR no such element: Unable to locate element: {"method":"xpath","selector":"//div[text()=' - выбор товаров и места их покупки'] "}
  (Session info: chrome=84.0.4147.135)
[1598451650.723][INFO]: [1128508806647bd3d693897be88dc624] COMMAND FindElement {
   "using": "xpath",
   "value": "//div[text()=' - выбор товаров и места их покупки'] "
}
[1598451650.723][INFO]: Waiting for pending navigations...
[1598451650.724][INFO]: Done waiting for pending navigations. Status: ok
[1598451650.727][INFO]: Waiting for pending navigations...
[1598451650.728][INFO]: Done waiting for pending navigations. Status: ok
[1598451650.728][INFO]: [1128508806647bd3d693897be88dc624] RESPONSE FindElement ERROR no such element: Unable to locate element: {"method":"xpath","selector":"//div[text()=' - выбор товаров и места их покупки'] "}
  (Session info: chrome=84.0.4147.135)
[1598451650.938][INFO]: [1128508806647bd3d693897be88dc624] COMMAND FindElement {
   "using": "xpath",
   "value": "//div[text()=' - выбор товаров и места их покупки'] "
}
[1598451650.938][INFO]: Waiting for pending navigations...
[1598451650.939][INFO]: Done waiting for pending navigations. Status: ok
[1598451650.944][INFO]: Waiting for pending navigations...
[1598451650.944][INFO]: Done waiting for pending navigations. Status: ok
[1598451650.944][INFO]: [1128508806647bd3d693897be88dc624] RESPONSE FindElement ERROR no such element: Unable to locate element: {"method":"xpath","selector":"//div[text()=' - выбор товаров и места их покупки'] "}
  (Session info: chrome=84.0.4147.135)
[1598451651.158][INFO]: [1128508806647bd3d693897be88dc624] COMMAND FindElement {
   "using": "xpath",
   "value": "//div[text()=' - выбор товаров и места их покупки'] "
}
[1598451651.159][INFO]: Waiting for pending navigations...
[1598451651.159][INFO]: Done waiting for pending navigations. Status: ok
[1598451651.165][INFO]: Waiting for pending navigations...
[1598451651.165][INFO]: Done waiting for pending navigations. Status: ok
[1598451651.166][INFO]: [1128508806647bd3d693897be88dc624] RESPONSE FindElement ERROR no such element: Unable to locate element: {"method":"xpath","selector":"//div[text()=' - выбор товаров и места их покупки'] "}
  (Session info: chrome=84.0.4147.135)
[1598451651.375][INFO]: [1128508806647bd3d693897be88dc624] COMMAND FindElement {
   "using": "xpath",
   "value": "//div[text()=' - выбор товаров и места их покупки'] "
}
[1598451651.375][INFO]: Waiting for pending navigations...
[1598451651.376][INFO]: Done waiting for pending navigations. Status: ok
[1598451651.381][INFO]: Waiting for pending navigations...
[1598451651.381][INFO]: Done waiting for pending navigations. Status: ok
[1598451651.381][INFO]: [1128508806647bd3d693897be88dc624] RESPONSE FindElement ERROR no such element: Unable to locate element: {"method":"xpath","selector":"//div[text()=' - выбор товаров и места их покупки'] "}
  (Session info: chrome=84.0.4147.135)
[1598451651.592][INFO]: [1128508806647bd3d693897be88dc624] COMMAND FindElement {
   "using": "xpath",
   "value": "//div[text()=' - выбор товаров и места их покупки'] "
}
[1598451651.592][INFO]: Waiting for pending navigations...
[1598451651.593][INFO]: Done waiting for pending navigations. Status: ok
[1598451651.597][INFO]: Waiting for pending navigations...
[1598451651.597][INFO]: Done waiting for pending navigations. Status: ok
[1598451651.597][INFO]: [1128508806647bd3d693897be88dc624] RESPONSE FindElement ERROR no such element: Unable to locate element: {"method":"xpath","selector":"//div[text()=' - выбор товаров и места их покупки'] "}
  (Session info: chrome=84.0.4147.135)
[1598451651.812][INFO]: [1128508806647bd3d693897be88dc624] COMMAND FindElement {
   "using": "xpath",
   "value": "//div[text()=' - выбор товаров и места их покупки'] "
}
[1598451651.812][INFO]: Waiting for pending navigations...
[1598451651.812][INFO]: Done waiting for pending navigations. Status: ok
[1598451651.816][INFO]: Waiting for pending navigations...
[1598451651.816][INFO]: Done waiting for pending navigations. Status: ok
[1598451651.816][INFO]: [1128508806647bd3d693897be88dc624] RESPONSE FindElement ERROR no such element: Unable to locate element: {"method":"xpath","selector":"//div[text()=' - выбор товаров и места их покупки'] "}
  (Session info: chrome=84.0.4147.135)
[1598451652.029][INFO]: [1128508806647bd3d693897be88dc624] COMMAND FindElement {
   "using": "xpath",
   "value": "//div[text()=' - выбор товаров и места их покупки'] "
}
[1598451652.029][INFO]: Waiting for pending navigations...
[1598451652.030][INFO]: Done waiting for pending navigations. Status: ok
[1598451652.034][INFO]: Waiting for pending navigations...
[1598451652.035][INFO]: Done waiting for pending navigations. Status: ok
[1598451652.035][INFO]: [1128508806647bd3d693897be88dc624] RESPONSE FindElement ERROR no such element: Unable to locate element: {"method":"xpath","selector":"//div[text()=' - выбор товаров и места их покупки'] "}
  (Session info: chrome=84.0.4147.135)
[1598451652.249][INFO]: [1128508806647bd3d693897be88dc624] COMMAND FindElement {
   "using": "xpath",
   "value": "//div[text()=' - выбор товаров и места их покупки'] "
}
[1598451652.249][INFO]: Waiting for pending navigations...
[1598451652.250][INFO]: Done waiting for pending navigations. Status: ok
[1598451652.253][INFO]: Waiting for pending navigations...
[1598451652.254][INFO]: Done waiting for pending navigations. Status: ok
[1598451652.254][INFO]: [1128508806647bd3d693897be88dc624] RESPONSE FindElement ERROR no such element: Unable to locate element: {"method":"xpath","selector":"//div[text()=' - выбор товаров и места их покупки'] "}
  (Session info: chrome=84.0.4147.135)
[1598451652.469][INFO]: [1128508806647bd3d693897be88dc624] COMMAND FindElement {
   "using": "xpath",
   "value": "//div[text()=' - выбор товаров и места их покупки'] "
}
[1598451652.469][INFO]: Waiting for pending navigations...
[1598451652.469][INFO]: Done waiting for pending navigations. Status: ok
[1598451652.473][INFO]: Waiting for pending navigations...
[1598451652.473][INFO]: Done waiting for pending navigations. Status: ok
[1598451652.473][INFO]: [1128508806647bd3d693897be88dc624] RESPONSE FindElement ERROR no such element: Unable to locate element: {"method":"xpath","selector":"//div[text()=' - выбор товаров и места их покупки'] "}
  (Session info: chrome=84.0.4147.135)
[1598451652.689][INFO]: [1128508806647bd3d693897be88dc624] COMMAND FindElement {
   "using": "xpath",
   "value": "//div[text()=' - выбор товаров и места их покупки'] "
}
[1598451652.689][INFO]: Waiting for pending navigations...
[1598451652.690][INFO]: Done waiting for pending navigations. Status: ok
[1598451652.694][INFO]: Waiting for pending navigations...
[1598451652.694][INFO]: Done waiting for pending navigations. Status: ok
[1598451652.694][INFO]: [1128508806647bd3d693897be88dc624] RESPONSE FindElement ERROR no such element: Unable to locate element: {"method":"xpath","selector":"//div[text()=' - выбор товаров и места их покупки'] "}
  (Session info: chrome=84.0.4147.135)
[1598451652.912][INFO]: [1128508806647bd3d693897be88dc624] COMMAND ExecuteScript {
   "args": [  ],
   "script": "var source = document.documentElement.outerHTML; \nif (!source) { source = new XMLSerializer().serializeToString(document); }\nreturn source;"
}
[1598451652.912][INFO]: Waiting for pending navigations...
[1598451652.912][INFO]: Done waiting for pending navigations. Status: ok
[1598451652.975][INFO]: Waiting for pending navigations...
[1598451652.976][INFO]: Done waiting for pending navigations. Status: ok
[1598451652.976][INFO]: [1128508806647bd3d693897be88dc624] RESPONSE ExecuteScript "\u003Chtml class=\"i-ua_js_yes i-ua_css_standart i-ua_browser_chrome i-ua_browser-engine_webkit i-ua_browser_desktop i-ua_platform_windows js i-ua_placeholder_yes i-ua_inlinesvg_yes m-svg i-ua_animation_..."
[1598451653.121][INFO]: [1128508806647bd3d693897be88dc624] COMMAND Screenshot {

}
[1598451653.121][INFO]: Waiting for pending navigations...
[1598451653.122][INFO]: Done waiting for pending navigations. Status: ok
[1598451653.394][INFO]: Waiting for pending navigations...
[1598451653.395][INFO]: Done waiting for pending navigations. Status: ok
[1598451653.395][INFO]: [1128508806647bd3d693897be88dc624] RESPONSE Screenshot "iVBORw0KGgoAAAANSUhEUgAABUYAAAKoCAYAAAC7qCUdAAAAAXNSR0IArs4c6QAAIABJREFUeJzs3Xl8VOW9P/DPmZkskw2zQAIJmIBCIAiIgkCAW/EK/Ci/epvgAoi96v1FS20toPTlBdKaQL3XBatXKNJLq2LAIolXixSkoheSQAXZFEhYkhASSOpMYtbJMjPn9..."
[1598451653.431][INFO]: [1128508806647bd3d693897be88dc624] COMMAND Quit {

}
[1598451653.452][INFO]: [1128508806647bd3d693897be88dc624] RESPONSE Quit
