[1600943642.591][INFO]: Starting ChromeDriver 85.0.4183.87 (cd6713ebf92fa1cacc0f1a598df280093af0c5d7-refs/branch-heads/4183@{#1689}) on port 2194
[1600943642.591][INFO]: Please see https://chromedriver.chromium.org/security-considerations for suggestions on keeping ChromeDriver safe.
[1600943643.197][INFO]: [c2b7756f0d2d633646a8cd5024b8d0eb] COMMAND InitSession {
   "capabilities": {
      "firstMatch": [ {
         "acceptInsecureCerts": true,
         "browserName": "chrome",
         "goog:chromeOptions": {
            "args": [ "--proxy-bypass-list=\u003C-loopback>", "--disable-dev-shm-usage" ],
            "excludeSwitches": [ "enable-automation", "load-extension" ],
            "extensions": [  ],
            "prefs": {
               "credentials_enable_service": false,
               "download.default_directory": "C:\\Users\\Nikisha\\IdeaProjects\\YaMa\\build\\downloads\\1600943642168_14092_1",
               "plugins.always_open_pdf_externally": true
            }
         },
         "pageLoadStrategy": "normal"
      } ]
   },
   "desiredCapabilities": {
      "acceptInsecureCerts": true,
      "acceptSslCerts": true,
      "browserName": "chrome",
      "goog:chromeOptions": {
         "args": [ "--proxy-bypass-list=\u003C-loopback>", "--disable-dev-shm-usage" ],
         "excludeSwitches": [ "enable-automation", "load-extension" ],
         "extensions": [  ],
         "prefs": {
            "credentials_enable_service": false,
            "download.default_directory": "C:\\Users\\Nikisha\\IdeaProjects\\YaMa\\build\\downloads\\1600943642168_14092_1",
            "plugins.always_open_pdf_externally": true
         }
      },
      "handlesAlerts": true,
      "javascriptEnabled": true,
      "pageLoadStrategy": "normal",
      "takesScreenshot": true
   }
}
[1600943643.201][INFO]: Populating Preferences file: {
   "alternate_error_pages": {
      "enabled": false
   },
   "autofill": {
      "enabled": false
   },
   "browser": {
      "check_default_browser": false
   },
   "credentials_enable_service": false,
   "distribution": {
      "import_bookmarks": false,
      "import_history": false,
      "import_search_engine": false,
      "make_chrome_default_for_user": false,
      "skip_first_run_ui": true
   },
   "dns_prefetching": {
      "enabled": false
   },
   "download": {
      "default_directory": "C:\\Users\\Nikisha\\IdeaProjects\\YaMa\\build\\downloads\\1600943642168_14092_1"
   },
   "plugins": {
      "always_open_pdf_externally": true
   },
   "profile": {
      "content_settings": {
         "pattern_pairs": {
            "https://*,*": {
               "media-stream": {
                  "audio": "Default",
                  "video": "Default"
               }
            }
         }
      },
      "default_content_setting_values": {
         "geolocation": 1
      },
      "default_content_settings": {
         "geolocation": 1,
         "mouselock": 1,
         "notifications": 1,
         "popups": 1,
         "ppapi-broker": 1
      },
      "password_manager_enabled": false
   },
   "safebrowsing": {
      "enabled": false
   },
   "search": {
      "suggest_enabled": false
   },
   "translate": {
      "enabled": false
   }
}
[1600943643.201][INFO]: Populating Local State file: {
   "background_mode": {
      "enabled": false
   },
   "ssl": {
      "rev_checking": {
         "enabled": false
      }
   }
}
[1600943643.201][INFO]: Launching chrome: "C:\Program Files (x86)\Google\Chrome\Application\chrome.exe" --disable-background-networking --disable-client-side-phishing-detection --disable-default-apps --disable-dev-shm-usage --disable-hang-monitor --disable-popup-blocking --disable-prompt-on-repost --disable-sync --enable-blink-features=ShadowDOMV0 --enable-logging --ignore-certificate-errors --log-level=0 --no-first-run --password-store=basic --proxy-bypass-list=<-loopback> --remote-debugging-port=0 --test-type=webdriver --use-mock-keychain --user-data-dir="C:\Users\Nikisha\AppData\Local\Temp\scoped_dir8784_184106405" data:,
[1600943643.719][INFO]: resolved localhost to ["::1","127.0.0.1"]
[1600943645.753][INFO]: resolved localhost to ["::1","127.0.0.1"]
[1600943647.832][INFO]: [c2b7756f0d2d633646a8cd5024b8d0eb] RESPONSE InitSession {
   "capabilities": {
      "acceptInsecureCerts": true,
      "browserName": "chrome",
      "browserVersion": "85.0.4183.121",
      "chrome": {
         "chromedriverVersion": "85.0.4183.87 (cd6713ebf92fa1cacc0f1a598df280093af0c5d7-refs/branch-heads/4183@{#1689})",
         "userDataDir": "C:\\Users\\Nikisha\\AppData\\Local\\Temp\\scoped_dir8784_184106405"
      },
      "goog:chromeOptions": {
         "debuggerAddress": "localhost:51479"
      },
      "networkConnectionEnabled": false,
      "pageLoadStrategy": "normal",
      "platformName": "windows",
      "proxy": {

      },
      "setWindowRect": true,
      "strictFileInteractability": false,
      "timeouts": {
         "implicit": 0,
         "pageLoad": 300000,
         "script": 30000
      },
      "unhandledPromptBehavior": "dismiss and notify",
      "webauthn:virtualAuthenticators": true
   },
   "sessionId": "c2b7756f0d2d633646a8cd5024b8d0eb"
}
[1600943647.862][INFO]: [c2b7756f0d2d633646a8cd5024b8d0eb] COMMAND SetWindowRect {
   "height": 768,
   "width": 1366
}
[1600943647.862][INFO]: Waiting for pending navigations...
[1600943647.864][INFO]: Done waiting for pending navigations. Status: ok
[1600943647.980][INFO]: Waiting for pending navigations...
[1600943647.981][INFO]: Done waiting for pending navigations. Status: ok
[1600943647.981][INFO]: [c2b7756f0d2d633646a8cd5024b8d0eb] RESPONSE SetWindowRect {
   "height": 768,
   "width": 1366,
   "x": 10,
   "y": 10
}
[1600943647.987][INFO]: [c2b7756f0d2d633646a8cd5024b8d0eb] COMMAND Navigate {
   "url": "https://yandex.ru/"
}
[1600943647.987][INFO]: Waiting for pending navigations...
[1600943647.987][INFO]: Done waiting for pending navigations. Status: ok
[1600943648.398][INFO]: Waiting for pending navigations...
[1600943649.339][INFO]: Done waiting for pending navigations. Status: ok
[1600943649.339][INFO]: [c2b7756f0d2d633646a8cd5024b8d0eb] RESPONSE Navigate
[1600943649.377][INFO]: [c2b7756f0d2d633646a8cd5024b8d0eb] COMMAND FindElement {
   "using": "xpath",
   "value": "//input[@aria-label=\"Запрос\"]"
}
[1600943649.377][INFO]: Waiting for pending navigations...
[1600943649.378][INFO]: Done waiting for pending navigations. Status: ok
[1600943649.389][INFO]: Waiting for pending navigations...
[1600943649.390][INFO]: Done waiting for pending navigations. Status: ok
[1600943649.390][INFO]: [c2b7756f0d2d633646a8cd5024b8d0eb] RESPONSE FindElement {
   "element-6066-11e4-a52e-4f735466cecf": "e2ac38c0-9398-4ddd-8227-c7de21eb8ef3"
}
[1600943649.412][INFO]: [c2b7756f0d2d633646a8cd5024b8d0eb] COMMAND ExecuteScript {
   "args": [ {
      "element-6066-11e4-a52e-4f735466cecf": "e2ac38c0-9398-4ddd-8227-c7de21eb8ef3"
   } ],
   "script": "return (function(){return function(){var k=this;function l(a){return void 0!==a}function m(a){return\"string\"==typeof a}function aa(a,b){a=a.split(\".\");var c=k;a[0]in c||!c.execScript||c.execScript(..."
}
[1600943649.412][INFO]: Waiting for pending navigations...
[1600943649.588][INFO]: Done waiting for pending navigations. Status: ok
[1600943649.621][INFO]: Waiting for pending navigations...
[1600943649.635][INFO]: Done waiting for pending navigations. Status: ok
[1600943649.635][INFO]: [c2b7756f0d2d633646a8cd5024b8d0eb] RESPONSE ExecuteScript true
[1600943649.640][INFO]: [c2b7756f0d2d633646a8cd5024b8d0eb] COMMAND ClearElement {
   "id": "e2ac38c0-9398-4ddd-8227-c7de21eb8ef3"
}
[1600943649.640][INFO]: Waiting for pending navigations...
[1600943649.653][INFO]: Done waiting for pending navigations. Status: ok
[1600943649.787][INFO]: 
	=== NOTE: ===
	The Clear command in ChromeDriver 2.43 and above
	has been updated to conform to the current standard,
	including raising blur event after clearing.

[1600943649.800][INFO]: Waiting for pending navigations...
[1600943649.808][INFO]: Done waiting for pending navigations. Status: ok
[1600943649.808][INFO]: [c2b7756f0d2d633646a8cd5024b8d0eb] RESPONSE ClearElement
[1600943649.813][INFO]: [c2b7756f0d2d633646a8cd5024b8d0eb] COMMAND TypeElement {
   "id": "e2ac38c0-9398-4ddd-8227-c7de21eb8ef3",
   "text": "market yandex",
   "value": [ "m", "a", "r", "k", "e", "t", " ", "y", "a", "n", "d", "e", "x" ]
}
[1600943649.813][INFO]: Waiting for pending navigations...
[1600943649.814][INFO]: Done waiting for pending navigations. Status: ok
[1600943649.854][INFO]: Waiting for pending navigations...
[1600943649.858][INFO]: Done waiting for pending navigations. Status: ok
[1600943649.858][INFO]: [c2b7756f0d2d633646a8cd5024b8d0eb] RESPONSE TypeElement
[1600943649.861][INFO]: [c2b7756f0d2d633646a8cd5024b8d0eb] COMMAND FindElement {
   "using": "xpath",
   "value": "//input[@aria-label=\"Запрос\"]"
}
[1600943649.861][INFO]: Waiting for pending navigations...
[1600943649.861][INFO]: Done waiting for pending navigations. Status: ok
[1600943649.865][INFO]: Waiting for pending navigations...
[1600943649.866][INFO]: Done waiting for pending navigations. Status: ok
[1600943649.866][INFO]: [c2b7756f0d2d633646a8cd5024b8d0eb] RESPONSE FindElement {
   "element-6066-11e4-a52e-4f735466cecf": "e2ac38c0-9398-4ddd-8227-c7de21eb8ef3"
}
[1600943649.872][INFO]: [c2b7756f0d2d633646a8cd5024b8d0eb] COMMAND ExecuteScript {
   "args": [ {
      "element-6066-11e4-a52e-4f735466cecf": "e2ac38c0-9398-4ddd-8227-c7de21eb8ef3"
   } ],
   "script": "return (function(){return function(){var k=this;function l(a){return void 0!==a}function m(a){return\"string\"==typeof a}function aa(a,b){a=a.split(\".\");var c=k;a[0]in c||!c.execScript||c.execScript(..."
}
[1600943649.872][INFO]: Waiting for pending navigations...
[1600943649.873][INFO]: Done waiting for pending navigations. Status: ok
[1600943649.880][INFO]: Waiting for pending navigations...
[1600943649.880][INFO]: Done waiting for pending navigations. Status: ok
[1600943649.880][INFO]: [c2b7756f0d2d633646a8cd5024b8d0eb] RESPONSE ExecuteScript true
[1600943649.884][INFO]: [c2b7756f0d2d633646a8cd5024b8d0eb] COMMAND TypeElement {
   "id": "e2ac38c0-9398-4ddd-8227-c7de21eb8ef3",
   "text": "",
   "value": [ "" ]
}
[1600943649.884][INFO]: Waiting for pending navigations...
[1600943649.884][INFO]: Done waiting for pending navigations. Status: ok
[1600943649.896][INFO]: Waiting for pending navigations...
[1600943649.896][INFO]: Done waiting for pending navigations. Status: ok
[1600943649.896][INFO]: [c2b7756f0d2d633646a8cd5024b8d0eb] RESPONSE TypeElement
[1600943649.901][INFO]: [c2b7756f0d2d633646a8cd5024b8d0eb] COMMAND FindElement {
   "using": "xpath",
   "value": "//div[text()=' — выбор товаров и места их покупки']"
}
[1600943649.901][INFO]: Waiting for pending navigations...
[1600943650.599][INFO]: Done waiting for pending navigations. Status: ok
[1600943650.625][INFO]: Waiting for pending navigations...
[1600943650.635][INFO]: Done waiting for pending navigations. Status: ok
[1600943650.636][INFO]: [c2b7756f0d2d633646a8cd5024b8d0eb] RESPONSE FindElement {
   "element-6066-11e4-a52e-4f735466cecf": "89fd85e2-a07e-4c3b-b23a-44910adedf65"
}
[1600943650.642][INFO]: [c2b7756f0d2d633646a8cd5024b8d0eb] COMMAND ExecuteScript {
   "args": [ {
      "element-6066-11e4-a52e-4f735466cecf": "89fd85e2-a07e-4c3b-b23a-44910adedf65"
   } ],
   "script": "return (function(){return function(){var k=this;function l(a){return void 0!==a}function m(a){return\"string\"==typeof a}function aa(a,b){a=a.split(\".\");var c=k;a[0]in c||!c.execScript||c.execScript(..."
}
[1600943650.642][INFO]: Waiting for pending navigations...
[1600943650.643][INFO]: Done waiting for pending navigations. Status: ok
[1600943650.651][INFO]: Waiting for pending navigations...
[1600943650.653][INFO]: Done waiting for pending navigations. Status: ok
[1600943650.653][INFO]: [c2b7756f0d2d633646a8cd5024b8d0eb] RESPONSE ExecuteScript true
[1600943650.656][INFO]: [c2b7756f0d2d633646a8cd5024b8d0eb] COMMAND ClickElement {
   "id": "89fd85e2-a07e-4c3b-b23a-44910adedf65"
}
[1600943650.656][INFO]: Waiting for pending navigations...
[1600943650.656][INFO]: Done waiting for pending navigations. Status: ok
[1600943650.711][INFO]: Waiting for pending navigations...
[1600943650.723][INFO]: Done waiting for pending navigations. Status: ok
[1600943650.723][INFO]: [c2b7756f0d2d633646a8cd5024b8d0eb] RESPONSE ClickElement
[1600943650.729][INFO]: [c2b7756f0d2d633646a8cd5024b8d0eb] COMMAND GetWindows {

}
[1600943650.731][INFO]: [c2b7756f0d2d633646a8cd5024b8d0eb] RESPONSE GetWindows [ "CDwindow-EEB12E59E6EC8E9AB78F899CF6CD7DB6", "CDwindow-206913FD741496DACF913ABFF39CF7E0" ]
[1600943650.737][INFO]: [c2b7756f0d2d633646a8cd5024b8d0eb] COMMAND SwitchToWindow {
   "handle": "CDwindow-206913FD741496DACF913ABFF39CF7E0"
}
[1600943650.740][INFO]: [c2b7756f0d2d633646a8cd5024b8d0eb] RESPONSE SwitchToWindow
[1600943650.744][INFO]: [c2b7756f0d2d633646a8cd5024b8d0eb] COMMAND FindElement {
   "using": "xpath",
   "value": "//button[./span[text()='Да, спасибо']]"
}
[1600943650.744][INFO]: resolved localhost to ["::1","127.0.0.1"]
[1600943652.787][INFO]: Waiting for pending navigations...
[1600943652.794][INFO]: Done waiting for pending navigations. Status: ok
[1600943652.804][INFO]: Waiting for pending navigations...
[1600943652.806][INFO]: Done waiting for pending navigations. Status: ok
[1600943652.806][INFO]: [c2b7756f0d2d633646a8cd5024b8d0eb] RESPONSE FindElement {
   "element-6066-11e4-a52e-4f735466cecf": "b704e139-7a53-4093-ab55-54ad552a2b1a"
}
[1600943652.812][INFO]: [c2b7756f0d2d633646a8cd5024b8d0eb] COMMAND ExecuteScript {
   "args": [ {
      "element-6066-11e4-a52e-4f735466cecf": "b704e139-7a53-4093-ab55-54ad552a2b1a"
   } ],
   "script": "return (function(){return function(){var k=this;function l(a){return void 0!==a}function m(a){return\"string\"==typeof a}function aa(a,b){a=a.split(\".\");var c=k;a[0]in c||!c.execScript||c.execScript(..."
}
[1600943652.812][INFO]: Waiting for pending navigations...
[1600943652.812][INFO]: Done waiting for pending navigations. Status: ok
[1600943652.824][INFO]: Waiting for pending navigations...
[1600943652.825][INFO]: Done waiting for pending navigations. Status: ok
[1600943652.825][INFO]: [c2b7756f0d2d633646a8cd5024b8d0eb] RESPONSE ExecuteScript true
[1600943652.827][INFO]: [c2b7756f0d2d633646a8cd5024b8d0eb] COMMAND ClickElement {
   "id": "b704e139-7a53-4093-ab55-54ad552a2b1a"
}
[1600943652.827][INFO]: Waiting for pending navigations...
[1600943652.828][INFO]: Done waiting for pending navigations. Status: ok
[1600943652.887][INFO]: Waiting for pending navigations...
[1600943652.896][INFO]: Done waiting for pending navigations. Status: ok
[1600943652.896][INFO]: [c2b7756f0d2d633646a8cd5024b8d0eb] RESPONSE ClickElement
[1600943652.899][INFO]: [c2b7756f0d2d633646a8cd5024b8d0eb] COMMAND FindElement {
   "using": "xpath",
   "value": "//input[@aria-labelledby=\"header-search header-search-label\"]"
}
[1600943652.899][INFO]: Waiting for pending navigations...
[1600943652.899][INFO]: Done waiting for pending navigations. Status: ok
[1600943652.910][INFO]: Waiting for pending navigations...
[1600943652.911][INFO]: Done waiting for pending navigations. Status: ok
[1600943652.911][INFO]: [c2b7756f0d2d633646a8cd5024b8d0eb] RESPONSE FindElement {
   "element-6066-11e4-a52e-4f735466cecf": "3029f579-04bc-4b35-bb32-d9d280cdabb8"
}
[1600943652.916][INFO]: [c2b7756f0d2d633646a8cd5024b8d0eb] COMMAND ExecuteScript {
   "args": [ {
      "element-6066-11e4-a52e-4f735466cecf": "3029f579-04bc-4b35-bb32-d9d280cdabb8"
   } ],
   "script": "return (function(){return function(){var k=this;function l(a){return void 0!==a}function m(a){return\"string\"==typeof a}function aa(a,b){a=a.split(\".\");var c=k;a[0]in c||!c.execScript||c.execScript(..."
}
[1600943652.916][INFO]: Waiting for pending navigations...
[1600943652.917][INFO]: Done waiting for pending navigations. Status: ok
[1600943652.926][INFO]: Waiting for pending navigations...
[1600943652.927][INFO]: Done waiting for pending navigations. Status: ok
[1600943652.927][INFO]: [c2b7756f0d2d633646a8cd5024b8d0eb] RESPONSE ExecuteScript true
[1600943652.930][INFO]: [c2b7756f0d2d633646a8cd5024b8d0eb] COMMAND ClearElement {
   "id": "3029f579-04bc-4b35-bb32-d9d280cdabb8"
}
[1600943652.930][INFO]: Waiting for pending navigations...
[1600943652.930][INFO]: Done waiting for pending navigations. Status: ok
[1600943652.958][INFO]: Waiting for pending navigations...
[1600943652.959][INFO]: Done waiting for pending navigations. Status: ok
[1600943652.959][INFO]: [c2b7756f0d2d633646a8cd5024b8d0eb] RESPONSE ClearElement
[1600943652.962][INFO]: [c2b7756f0d2d633646a8cd5024b8d0eb] COMMAND TypeElement {
   "id": "3029f579-04bc-4b35-bb32-d9d280cdabb8",
   "text": "Xiaomi Redmi Power Bank Fast Charge 20000",
   "value": [ "X", "i", "a", "o", "m", "i", " ", "R", "e", "d", "m", "i", " ", "P", "o", "w", "e", "r", " ", "..." ]
}
[1600943652.962][INFO]: Waiting for pending navigations...
[1600943652.962][INFO]: Done waiting for pending navigations. Status: ok
[1600943653.293][INFO]: Waiting for pending navigations...
[1600943653.303][INFO]: Done waiting for pending navigations. Status: ok
[1600943653.303][INFO]: [c2b7756f0d2d633646a8cd5024b8d0eb] RESPONSE TypeElement
[1600943653.307][INFO]: [c2b7756f0d2d633646a8cd5024b8d0eb] COMMAND FindElement {
   "using": "xpath",
   "value": "//input[@aria-labelledby=\"header-search header-search-label\"]"
}
[1600943653.307][INFO]: Waiting for pending navigations...
[1600943653.310][INFO]: Done waiting for pending navigations. Status: ok
[1600943653.338][INFO]: Waiting for pending navigations...
[1600943653.342][INFO]: Done waiting for pending navigations. Status: ok
[1600943653.342][INFO]: [c2b7756f0d2d633646a8cd5024b8d0eb] RESPONSE FindElement {
   "element-6066-11e4-a52e-4f735466cecf": "3029f579-04bc-4b35-bb32-d9d280cdabb8"
}
[1600943653.349][INFO]: [c2b7756f0d2d633646a8cd5024b8d0eb] COMMAND ExecuteScript {
   "args": [ {
      "element-6066-11e4-a52e-4f735466cecf": "3029f579-04bc-4b35-bb32-d9d280cdabb8"
   } ],
   "script": "return (function(){return function(){var k=this;function l(a){return void 0!==a}function m(a){return\"string\"==typeof a}function aa(a,b){a=a.split(\".\");var c=k;a[0]in c||!c.execScript||c.execScript(..."
}
[1600943653.349][INFO]: Waiting for pending navigations...
[1600943653.352][INFO]: Done waiting for pending navigations. Status: ok
[1600943653.357][INFO]: Waiting for pending navigations...
[1600943653.357][INFO]: Done waiting for pending navigations. Status: ok
[1600943653.357][INFO]: [c2b7756f0d2d633646a8cd5024b8d0eb] RESPONSE ExecuteScript true
[1600943653.360][INFO]: [c2b7756f0d2d633646a8cd5024b8d0eb] COMMAND TypeElement {
   "id": "3029f579-04bc-4b35-bb32-d9d280cdabb8",
   "text": "",
   "value": [ "" ]
}
[1600943653.360][INFO]: Waiting for pending navigations...
[1600943653.361][INFO]: Done waiting for pending navigations. Status: ok
[1600943653.381][INFO]: Waiting for pending navigations...
[1600943653.382][INFO]: Done waiting for pending navigations. Status: ok
[1600943653.382][INFO]: [c2b7756f0d2d633646a8cd5024b8d0eb] RESPONSE TypeElement
[1600943653.385][INFO]: [c2b7756f0d2d633646a8cd5024b8d0eb] COMMAND FindElement {
   "using": "xpath",
   "value": "//input[@id='glpricefrom']"
}
[1600943653.385][INFO]: Waiting for pending navigations...
[1600943653.386][INFO]: Done waiting for pending navigations. Status: ok
[1600943653.398][INFO]: Waiting for pending navigations...
[1600943657.195][INFO]: Done waiting for pending navigations. Status: ok
[1600943657.195][INFO]: [c2b7756f0d2d633646a8cd5024b8d0eb] RESPONSE FindElement ERROR no such element: Unable to locate element: {"method":"xpath","selector":"//input[@id='glpricefrom']"}
  (Session info: chrome=85.0.4183.121)
[1600943657.423][INFO]: [c2b7756f0d2d633646a8cd5024b8d0eb] COMMAND ExecuteScript {
   "args": [  ],
   "script": "var source = document.documentElement.outerHTML; \nif (!source) { source = new XMLSerializer().serializeToString(document); }\nreturn source;"
}
[1600943657.423][INFO]: Waiting for pending navigations...
[1600943657.424][INFO]: Done waiting for pending navigations. Status: ok
[1600943657.462][INFO]: Waiting for pending navigations...
[1600943657.462][INFO]: Done waiting for pending navigations. Status: ok
[1600943657.463][INFO]: [c2b7756f0d2d633646a8cd5024b8d0eb] RESPONSE ExecuteScript "\u003Chtml class=\"i-ua_js_yes i-ua_css_standard i-ua_os-family_windows i-ua_browser-engine_webkit i-ua_browser-name_chrome i-ua_browser-version_85-0-4183-121 i-ua_placeholder_yes i-ua_svg_yes i-ua_inlin..."
[1600943657.570][INFO]: [c2b7756f0d2d633646a8cd5024b8d0eb] COMMAND Screenshot {

}
[1600943657.570][INFO]: Waiting for pending navigations...
[1600943657.571][INFO]: Done waiting for pending navigations. Status: ok
[1600943657.878][INFO]: Waiting for pending navigations...
[1600943657.878][INFO]: Done waiting for pending navigations. Status: ok
[1600943657.878][INFO]: [c2b7756f0d2d633646a8cd5024b8d0eb] RESPONSE Screenshot "iVBORw0KGgoAAAANSUhEUgAABUYAAAKoCAYAAAC7qCUdAAAAAXNSR0IArs4c6QAAIABJREFUeJzsvVmsLEl63/f7IiIzaznrXbpvb7P0MjPkkD2tAUnJtEjKlkTQtkxDgh5sWaRlEQZNw5JAQhAgvdgSDVsm/GAJtgULMEjLggAJph8GsAySNskhKFL2DDU9M5xmk..."
[1600943657.914][INFO]: [c2b7756f0d2d633646a8cd5024b8d0eb] COMMAND Quit {

}
[1600943657.940][INFO]: [c2b7756f0d2d633646a8cd5024b8d0eb] RESPONSE Quit
