[1601211572.595][INFO]: Starting ChromeDriver 85.0.4183.87 (cd6713ebf92fa1cacc0f1a598df280093af0c5d7-refs/branch-heads/4183@{#1689}) on port 14785
[1601211572.595][INFO]: Please see https://chromedriver.chromium.org/security-considerations for suggestions on keeping ChromeDriver safe.
[1601211573.217][INFO]: [5087028e422e14ef6bc0432a5fb93162] COMMAND InitSession {
   "capabilities": {
      "firstMatch": [ {
         "acceptInsecureCerts": true,
         "browserName": "chrome",
         "goog:chromeOptions": {
            "args": [ "--proxy-bypass-list=\u003C-loopback>", "--disable-dev-shm-usage" ],
            "excludeSwitches": [ "enable-automation", "load-extension" ],
            "extensions": [  ],
            "prefs": {
               "credentials_enable_service": false,
               "download.default_directory": "C:\\Users\\Nikisha\\IdeaProjects\\YaMa\\build\\downloads\\1601211572137_7768_1",
               "plugins.always_open_pdf_externally": true
            }
         },
         "pageLoadStrategy": "normal"
      } ]
   },
   "desiredCapabilities": {
      "acceptInsecureCerts": true,
      "acceptSslCerts": true,
      "browserName": "chrome",
      "goog:chromeOptions": {
         "args": [ "--proxy-bypass-list=\u003C-loopback>", "--disable-dev-shm-usage" ],
         "excludeSwitches": [ "enable-automation", "load-extension" ],
         "extensions": [  ],
         "prefs": {
            "credentials_enable_service": false,
            "download.default_directory": "C:\\Users\\Nikisha\\IdeaProjects\\YaMa\\build\\downloads\\1601211572137_7768_1",
            "plugins.always_open_pdf_externally": true
         }
      },
      "handlesAlerts": true,
      "javascriptEnabled": true,
      "pageLoadStrategy": "normal",
      "takesScreenshot": true
   }
}
[1601211573.221][INFO]: Populating Preferences file: {
   "alternate_error_pages": {
      "enabled": false
   },
   "autofill": {
      "enabled": false
   },
   "browser": {
      "check_default_browser": false
   },
   "credentials_enable_service": false,
   "distribution": {
      "import_bookmarks": false,
      "import_history": false,
      "import_search_engine": false,
      "make_chrome_default_for_user": false,
      "skip_first_run_ui": true
   },
   "dns_prefetching": {
      "enabled": false
   },
   "download": {
      "default_directory": "C:\\Users\\Nikisha\\IdeaProjects\\YaMa\\build\\downloads\\1601211572137_7768_1"
   },
   "plugins": {
      "always_open_pdf_externally": true
   },
   "profile": {
      "content_settings": {
         "pattern_pairs": {
            "https://*,*": {
               "media-stream": {
                  "audio": "Default",
                  "video": "Default"
               }
            }
         }
      },
      "default_content_setting_values": {
         "geolocation": 1
      },
      "default_content_settings": {
         "geolocation": 1,
         "mouselock": 1,
         "notifications": 1,
         "popups": 1,
         "ppapi-broker": 1
      },
      "password_manager_enabled": false
   },
   "safebrowsing": {
      "enabled": false
   },
   "search": {
      "suggest_enabled": false
   },
   "translate": {
      "enabled": false
   }
}
[1601211573.221][INFO]: Populating Local State file: {
   "background_mode": {
      "enabled": false
   },
   "ssl": {
      "rev_checking": {
         "enabled": false
      }
   }
}
[1601211573.222][INFO]: Launching chrome: "C:\Program Files (x86)\Google\Chrome\Application\chrome.exe" --disable-background-networking --disable-client-side-phishing-detection --disable-default-apps --disable-dev-shm-usage --disable-hang-monitor --disable-popup-blocking --disable-prompt-on-repost --disable-sync --enable-blink-features=ShadowDOMV0 --enable-logging --ignore-certificate-errors --log-level=0 --no-first-run --password-store=basic --proxy-bypass-list=<-loopback> --remote-debugging-port=0 --test-type=webdriver --use-mock-keychain --user-data-dir="C:\Users\Nikisha\AppData\Local\Temp\scoped_dir11148_1232448990" data:,
[1601211573.679][INFO]: resolved localhost to ["::1","127.0.0.1"]
[1601211575.731][INFO]: resolved localhost to ["::1","127.0.0.1"]
[1601211577.771][INFO]: [5087028e422e14ef6bc0432a5fb93162] RESPONSE InitSession {
   "capabilities": {
      "acceptInsecureCerts": true,
      "browserName": "chrome",
      "browserVersion": "85.0.4183.121",
      "chrome": {
         "chromedriverVersion": "85.0.4183.87 (cd6713ebf92fa1cacc0f1a598df280093af0c5d7-refs/branch-heads/4183@{#1689})",
         "userDataDir": "C:\\Users\\Nikisha\\AppData\\Local\\Temp\\scoped_dir11148_1232448990"
      },
      "goog:chromeOptions": {
         "debuggerAddress": "localhost:64895"
      },
      "networkConnectionEnabled": false,
      "pageLoadStrategy": "normal",
      "platformName": "windows",
      "proxy": {

      },
      "setWindowRect": true,
      "strictFileInteractability": false,
      "timeouts": {
         "implicit": 0,
         "pageLoad": 300000,
         "script": 30000
      },
      "unhandledPromptBehavior": "dismiss and notify",
      "webauthn:virtualAuthenticators": true
   },
   "sessionId": "5087028e422e14ef6bc0432a5fb93162"
}
[1601211577.800][INFO]: [5087028e422e14ef6bc0432a5fb93162] COMMAND SetWindowRect {
   "height": 768,
   "width": 1366
}
[1601211577.800][INFO]: Waiting for pending navigations...
[1601211577.801][INFO]: Done waiting for pending navigations. Status: ok
[1601211577.923][INFO]: Waiting for pending navigations...
[1601211577.923][INFO]: Done waiting for pending navigations. Status: ok
[1601211577.923][INFO]: [5087028e422e14ef6bc0432a5fb93162] RESPONSE SetWindowRect {
   "height": 768,
   "width": 1366,
   "x": 10,
   "y": 10
}
[1601211577.929][INFO]: [5087028e422e14ef6bc0432a5fb93162] COMMAND Navigate {
   "url": "https://yandex.ru/"
}
[1601211577.929][INFO]: Waiting for pending navigations...
[1601211577.929][INFO]: Done waiting for pending navigations. Status: ok
[1601211578.358][INFO]: Waiting for pending navigations...
[1601211578.880][INFO]: Done waiting for pending navigations. Status: ok
[1601211578.880][INFO]: [5087028e422e14ef6bc0432a5fb93162] RESPONSE Navigate
[1601211578.917][INFO]: [5087028e422e14ef6bc0432a5fb93162] COMMAND FindElement {
   "using": "xpath",
   "value": "//input[@aria-label=\"Запрос\"]"
}
[1601211578.917][INFO]: Waiting for pending navigations...
[1601211578.918][INFO]: Done waiting for pending navigations. Status: ok
[1601211578.930][INFO]: Waiting for pending navigations...
[1601211578.930][INFO]: Done waiting for pending navigations. Status: ok
[1601211578.930][INFO]: [5087028e422e14ef6bc0432a5fb93162] RESPONSE FindElement {
   "element-6066-11e4-a52e-4f735466cecf": "c1f3f022-a73d-4f4c-9008-100decc56338"
}
[1601211578.952][INFO]: [5087028e422e14ef6bc0432a5fb93162] COMMAND ExecuteScript {
   "args": [ {
      "element-6066-11e4-a52e-4f735466cecf": "c1f3f022-a73d-4f4c-9008-100decc56338"
   } ],
   "script": "return (function(){return function(){var k=this;function l(a){return void 0!==a}function m(a){return\"string\"==typeof a}function aa(a,b){a=a.split(\".\");var c=k;a[0]in c||!c.execScript||c.execScript(..."
}
[1601211578.952][INFO]: Waiting for pending navigations...
[1601211578.953][INFO]: Done waiting for pending navigations. Status: ok
[1601211578.968][INFO]: Waiting for pending navigations...
[1601211578.969][INFO]: Done waiting for pending navigations. Status: ok
[1601211578.969][INFO]: [5087028e422e14ef6bc0432a5fb93162] RESPONSE ExecuteScript true
[1601211578.973][INFO]: [5087028e422e14ef6bc0432a5fb93162] COMMAND ClearElement {
   "id": "c1f3f022-a73d-4f4c-9008-100decc56338"
}
[1601211578.973][INFO]: Waiting for pending navigations...
[1601211578.973][INFO]: Done waiting for pending navigations. Status: ok
[1601211578.994][INFO]: 
	=== NOTE: ===
	The Clear command in ChromeDriver 2.43 and above
	has been updated to conform to the current standard,
	including raising blur event after clearing.

[1601211579.003][INFO]: Waiting for pending navigations...
[1601211579.004][INFO]: Done waiting for pending navigations. Status: ok
[1601211579.004][INFO]: [5087028e422e14ef6bc0432a5fb93162] RESPONSE ClearElement
[1601211579.008][INFO]: [5087028e422e14ef6bc0432a5fb93162] COMMAND TypeElement {
   "id": "c1f3f022-a73d-4f4c-9008-100decc56338",
   "text": "market yandex",
   "value": [ "m", "a", "r", "k", "e", "t", " ", "y", "a", "n", "d", "e", "x" ]
}
[1601211579.008][INFO]: Waiting for pending navigations...
[1601211579.009][INFO]: Done waiting for pending navigations. Status: ok
[1601211579.052][INFO]: Waiting for pending navigations...
[1601211579.055][INFO]: Done waiting for pending navigations. Status: ok
[1601211579.056][INFO]: [5087028e422e14ef6bc0432a5fb93162] RESPONSE TypeElement
[1601211579.059][INFO]: [5087028e422e14ef6bc0432a5fb93162] COMMAND FindElement {
   "using": "xpath",
   "value": "//input[@aria-label=\"Запрос\"]"
}
[1601211579.059][INFO]: Waiting for pending navigations...
[1601211579.059][INFO]: Done waiting for pending navigations. Status: ok
[1601211579.064][INFO]: Waiting for pending navigations...
[1601211579.064][INFO]: Done waiting for pending navigations. Status: ok
[1601211579.064][INFO]: [5087028e422e14ef6bc0432a5fb93162] RESPONSE FindElement {
   "element-6066-11e4-a52e-4f735466cecf": "c1f3f022-a73d-4f4c-9008-100decc56338"
}
[1601211579.071][INFO]: [5087028e422e14ef6bc0432a5fb93162] COMMAND ExecuteScript {
   "args": [ {
      "element-6066-11e4-a52e-4f735466cecf": "c1f3f022-a73d-4f4c-9008-100decc56338"
   } ],
   "script": "return (function(){return function(){var k=this;function l(a){return void 0!==a}function m(a){return\"string\"==typeof a}function aa(a,b){a=a.split(\".\");var c=k;a[0]in c||!c.execScript||c.execScript(..."
}
[1601211579.071][INFO]: Waiting for pending navigations...
[1601211579.071][INFO]: Done waiting for pending navigations. Status: ok
[1601211579.078][INFO]: Waiting for pending navigations...
[1601211579.079][INFO]: Done waiting for pending navigations. Status: ok
[1601211579.079][INFO]: [5087028e422e14ef6bc0432a5fb93162] RESPONSE ExecuteScript true
[1601211579.083][INFO]: [5087028e422e14ef6bc0432a5fb93162] COMMAND TypeElement {
   "id": "c1f3f022-a73d-4f4c-9008-100decc56338",
   "text": "",
   "value": [ "" ]
}
[1601211579.083][INFO]: Waiting for pending navigations...
[1601211579.084][INFO]: Done waiting for pending navigations. Status: ok
[1601211579.095][INFO]: Waiting for pending navigations...
[1601211579.096][INFO]: Done waiting for pending navigations. Status: ok
[1601211579.096][INFO]: [5087028e422e14ef6bc0432a5fb93162] RESPONSE TypeElement
[1601211579.101][INFO]: [5087028e422e14ef6bc0432a5fb93162] COMMAND FindElement {
   "using": "xpath",
   "value": "//div[text()=' — выбор товаров и места их покупки']"
}
[1601211579.101][INFO]: Waiting for pending navigations...
[1601211579.761][INFO]: Done waiting for pending navigations. Status: ok
[1601211579.793][INFO]: Waiting for pending navigations...
[1601211579.795][INFO]: Done waiting for pending navigations. Status: ok
[1601211579.795][INFO]: [5087028e422e14ef6bc0432a5fb93162] RESPONSE FindElement ERROR no such element: Unable to locate element: {"method":"xpath","selector":"//div[text()=' — выбор товаров и места их покупки']"}
  (Session info: chrome=85.0.4183.121)
[1601211580.017][INFO]: [5087028e422e14ef6bc0432a5fb93162] COMMAND FindElement {
   "using": "xpath",
   "value": "//div[text()=' — выбор товаров и места их покупки']"
}
[1601211580.017][INFO]: Waiting for pending navigations...
[1601211580.018][INFO]: Done waiting for pending navigations. Status: ok
[1601211580.022][INFO]: Waiting for pending navigations...
[1601211580.022][INFO]: Done waiting for pending navigations. Status: ok
[1601211580.022][INFO]: [5087028e422e14ef6bc0432a5fb93162] RESPONSE FindElement ERROR no such element: Unable to locate element: {"method":"xpath","selector":"//div[text()=' — выбор товаров и места их покупки']"}
  (Session info: chrome=85.0.4183.121)
[1601211580.234][INFO]: [5087028e422e14ef6bc0432a5fb93162] COMMAND FindElement {
   "using": "xpath",
   "value": "//div[text()=' — выбор товаров и места их покупки']"
}
[1601211580.234][INFO]: Waiting for pending navigations...
[1601211580.235][INFO]: Done waiting for pending navigations. Status: ok
[1601211580.238][INFO]: Waiting for pending navigations...
[1601211580.238][INFO]: Done waiting for pending navigations. Status: ok
[1601211580.239][INFO]: [5087028e422e14ef6bc0432a5fb93162] RESPONSE FindElement ERROR no such element: Unable to locate element: {"method":"xpath","selector":"//div[text()=' — выбор товаров и места их покупки']"}
  (Session info: chrome=85.0.4183.121)
[1601211580.455][INFO]: [5087028e422e14ef6bc0432a5fb93162] COMMAND FindElement {
   "using": "xpath",
   "value": "//div[text()=' — выбор товаров и места их покупки']"
}
[1601211580.455][INFO]: Waiting for pending navigations...
[1601211580.456][INFO]: Done waiting for pending navigations. Status: ok
[1601211580.459][INFO]: Waiting for pending navigations...
[1601211580.460][INFO]: Done waiting for pending navigations. Status: ok
[1601211580.460][INFO]: [5087028e422e14ef6bc0432a5fb93162] RESPONSE FindElement ERROR no such element: Unable to locate element: {"method":"xpath","selector":"//div[text()=' — выбор товаров и места их покупки']"}
  (Session info: chrome=85.0.4183.121)
[1601211580.673][INFO]: [5087028e422e14ef6bc0432a5fb93162] COMMAND FindElement {
   "using": "xpath",
   "value": "//div[text()=' — выбор товаров и места их покупки']"
}
[1601211580.673][INFO]: Waiting for pending navigations...
[1601211580.673][INFO]: Done waiting for pending navigations. Status: ok
[1601211580.677][INFO]: Waiting for pending navigations...
[1601211580.677][INFO]: Done waiting for pending navigations. Status: ok
[1601211580.677][INFO]: [5087028e422e14ef6bc0432a5fb93162] RESPONSE FindElement ERROR no such element: Unable to locate element: {"method":"xpath","selector":"//div[text()=' — выбор товаров и места их покупки']"}
  (Session info: chrome=85.0.4183.121)
[1601211580.895][INFO]: [5087028e422e14ef6bc0432a5fb93162] COMMAND FindElement {
   "using": "xpath",
   "value": "//div[text()=' — выбор товаров и места их покупки']"
}
[1601211580.895][INFO]: Waiting for pending navigations...
[1601211580.896][INFO]: Done waiting for pending navigations. Status: ok
[1601211580.899][INFO]: Waiting for pending navigations...
[1601211580.900][INFO]: Done waiting for pending navigations. Status: ok
[1601211580.900][INFO]: [5087028e422e14ef6bc0432a5fb93162] RESPONSE FindElement ERROR no such element: Unable to locate element: {"method":"xpath","selector":"//div[text()=' — выбор товаров и места их покупки']"}
  (Session info: chrome=85.0.4183.121)
[1601211581.116][INFO]: [5087028e422e14ef6bc0432a5fb93162] COMMAND FindElement {
   "using": "xpath",
   "value": "//div[text()=' — выбор товаров и места их покупки']"
}
[1601211581.116][INFO]: Waiting for pending navigations...
[1601211581.116][INFO]: Done waiting for pending navigations. Status: ok
[1601211581.120][INFO]: Waiting for pending navigations...
[1601211581.120][INFO]: Done waiting for pending navigations. Status: ok
[1601211581.120][INFO]: [5087028e422e14ef6bc0432a5fb93162] RESPONSE FindElement ERROR no such element: Unable to locate element: {"method":"xpath","selector":"//div[text()=' — выбор товаров и места их покупки']"}
  (Session info: chrome=85.0.4183.121)
[1601211581.335][INFO]: [5087028e422e14ef6bc0432a5fb93162] COMMAND FindElement {
   "using": "xpath",
   "value": "//div[text()=' — выбор товаров и места их покупки']"
}
[1601211581.335][INFO]: Waiting for pending navigations...
[1601211581.335][INFO]: Done waiting for pending navigations. Status: ok
[1601211581.339][INFO]: Waiting for pending navigations...
[1601211581.339][INFO]: Done waiting for pending navigations. Status: ok
[1601211581.339][INFO]: [5087028e422e14ef6bc0432a5fb93162] RESPONSE FindElement ERROR no such element: Unable to locate element: {"method":"xpath","selector":"//div[text()=' — выбор товаров и места их покупки']"}
  (Session info: chrome=85.0.4183.121)
[1601211581.558][INFO]: [5087028e422e14ef6bc0432a5fb93162] COMMAND FindElement {
   "using": "xpath",
   "value": "//div[text()=' — выбор товаров и места их покупки']"
}
[1601211581.558][INFO]: Waiting for pending navigations...
[1601211581.559][INFO]: Done waiting for pending navigations. Status: ok
[1601211581.564][INFO]: Waiting for pending navigations...
[1601211581.565][INFO]: Done waiting for pending navigations. Status: ok
[1601211581.565][INFO]: [5087028e422e14ef6bc0432a5fb93162] RESPONSE FindElement ERROR no such element: Unable to locate element: {"method":"xpath","selector":"//div[text()=' — выбор товаров и места их покупки']"}
  (Session info: chrome=85.0.4183.121)
[1601211581.774][INFO]: [5087028e422e14ef6bc0432a5fb93162] COMMAND FindElement {
   "using": "xpath",
   "value": "//div[text()=' — выбор товаров и места их покупки']"
}
[1601211581.774][INFO]: Waiting for pending navigations...
[1601211581.775][INFO]: Done waiting for pending navigations. Status: ok
[1601211581.780][INFO]: Waiting for pending navigations...
[1601211581.780][INFO]: Done waiting for pending navigations. Status: ok
[1601211581.780][INFO]: [5087028e422e14ef6bc0432a5fb93162] RESPONSE FindElement ERROR no such element: Unable to locate element: {"method":"xpath","selector":"//div[text()=' — выбор товаров и места их покупки']"}
  (Session info: chrome=85.0.4183.121)
[1601211581.990][INFO]: [5087028e422e14ef6bc0432a5fb93162] COMMAND FindElement {
   "using": "xpath",
   "value": "//div[text()=' — выбор товаров и места их покупки']"
}
[1601211581.990][INFO]: Waiting for pending navigations...
[1601211581.991][INFO]: Done waiting for pending navigations. Status: ok
[1601211581.997][INFO]: Waiting for pending navigations...
[1601211581.997][INFO]: Done waiting for pending navigations. Status: ok
[1601211581.997][INFO]: [5087028e422e14ef6bc0432a5fb93162] RESPONSE FindElement ERROR no such element: Unable to locate element: {"method":"xpath","selector":"//div[text()=' — выбор товаров и места их покупки']"}
  (Session info: chrome=85.0.4183.121)
[1601211582.206][INFO]: [5087028e422e14ef6bc0432a5fb93162] COMMAND FindElement {
   "using": "xpath",
   "value": "//div[text()=' — выбор товаров и места их покупки']"
}
[1601211582.206][INFO]: Waiting for pending navigations...
[1601211582.207][INFO]: Done waiting for pending navigations. Status: ok
[1601211582.212][INFO]: Waiting for pending navigations...
[1601211582.213][INFO]: Done waiting for pending navigations. Status: ok
[1601211582.213][INFO]: [5087028e422e14ef6bc0432a5fb93162] RESPONSE FindElement ERROR no such element: Unable to locate element: {"method":"xpath","selector":"//div[text()=' — выбор товаров и места их покупки']"}
  (Session info: chrome=85.0.4183.121)
[1601211582.422][INFO]: [5087028e422e14ef6bc0432a5fb93162] COMMAND FindElement {
   "using": "xpath",
   "value": "//div[text()=' — выбор товаров и места их покупки']"
}
[1601211582.422][INFO]: Waiting for pending navigations...
[1601211582.423][INFO]: Done waiting for pending navigations. Status: ok
[1601211582.426][INFO]: Waiting for pending navigations...
[1601211582.427][INFO]: Done waiting for pending navigations. Status: ok
[1601211582.427][INFO]: [5087028e422e14ef6bc0432a5fb93162] RESPONSE FindElement ERROR no such element: Unable to locate element: {"method":"xpath","selector":"//div[text()=' — выбор товаров и места их покупки']"}
  (Session info: chrome=85.0.4183.121)
[1601211582.640][INFO]: [5087028e422e14ef6bc0432a5fb93162] COMMAND FindElement {
   "using": "xpath",
   "value": "//div[text()=' — выбор товаров и места их покупки']"
}
[1601211582.640][INFO]: Waiting for pending navigations...
[1601211582.640][INFO]: Done waiting for pending navigations. Status: ok
[1601211582.645][INFO]: Waiting for pending navigations...
[1601211582.645][INFO]: Done waiting for pending navigations. Status: ok
[1601211582.645][INFO]: [5087028e422e14ef6bc0432a5fb93162] RESPONSE FindElement ERROR no such element: Unable to locate element: {"method":"xpath","selector":"//div[text()=' — выбор товаров и места их покупки']"}
  (Session info: chrome=85.0.4183.121)
[1601211582.856][INFO]: [5087028e422e14ef6bc0432a5fb93162] COMMAND FindElement {
   "using": "xpath",
   "value": "//div[text()=' — выбор товаров и места их покупки']"
}
[1601211582.857][INFO]: Waiting for pending navigations...
[1601211582.857][INFO]: Done waiting for pending navigations. Status: ok
[1601211582.863][INFO]: Waiting for pending navigations...
[1601211582.863][INFO]: Done waiting for pending navigations. Status: ok
[1601211582.863][INFO]: [5087028e422e14ef6bc0432a5fb93162] RESPONSE FindElement ERROR no such element: Unable to locate element: {"method":"xpath","selector":"//div[text()=' — выбор товаров и места их покупки']"}
  (Session info: chrome=85.0.4183.121)
[1601211583.073][INFO]: [5087028e422e14ef6bc0432a5fb93162] COMMAND FindElement {
   "using": "xpath",
   "value": "//div[text()=' — выбор товаров и места их покупки']"
}
[1601211583.073][INFO]: Waiting for pending navigations...
[1601211583.073][INFO]: Done waiting for pending navigations. Status: ok
[1601211583.077][INFO]: Waiting for pending navigations...
[1601211583.077][INFO]: Done waiting for pending navigations. Status: ok
[1601211583.077][INFO]: [5087028e422e14ef6bc0432a5fb93162] RESPONSE FindElement ERROR no such element: Unable to locate element: {"method":"xpath","selector":"//div[text()=' — выбор товаров и места их покупки']"}
  (Session info: chrome=85.0.4183.121)
[1601211583.292][INFO]: [5087028e422e14ef6bc0432a5fb93162] COMMAND ExecuteScript {
   "args": [  ],
   "script": "var source = document.documentElement.outerHTML; \nif (!source) { source = new XMLSerializer().serializeToString(document); }\nreturn source;"
}
[1601211583.292][INFO]: Waiting for pending navigations...
[1601211583.292][INFO]: Done waiting for pending navigations. Status: ok
[1601211583.318][INFO]: Waiting for pending navigations...
[1601211583.319][INFO]: Done waiting for pending navigations. Status: ok
[1601211583.319][INFO]: [5087028e422e14ef6bc0432a5fb93162] RESPONSE ExecuteScript "\u003Chtml class=\"i-ua_js_yes i-ua_svg_yes utilityfocus\" lang=\"ru\">\u003Chead>\u003Cmeta charset=\"utf-8\">\u003Cmeta http-equiv=\"X-UA-Compatible\" content=\"IE=edge\">\u003Ctitle>market yandex — Яндекс: нашлось ..."
[1601211583.401][INFO]: [5087028e422e14ef6bc0432a5fb93162] COMMAND Screenshot {

}
[1601211583.401][INFO]: Waiting for pending navigations...
[1601211583.402][INFO]: Done waiting for pending navigations. Status: ok
[1601211583.669][INFO]: Waiting for pending navigations...
[1601211583.669][INFO]: Done waiting for pending navigations. Status: ok
[1601211583.669][INFO]: [5087028e422e14ef6bc0432a5fb93162] RESPONSE Screenshot "iVBORw0KGgoAAAANSUhEUgAABUYAAAKoCAYAAAC7qCUdAAAAAXNSR0IArs4c6QAAIABJREFUeJzs3XlcVPX+P/DXBMiiw4CMWcjqBoldsduiomjmdstKqVtfNRJbyGu3zOrWvaWCYn3bvOi35X6jumqGtPwuLl+v19TMSNByAVNqNFEUREuQZZRFoPn9cTiHc2ZjZ..."
[1601211583.709][INFO]: [5087028e422e14ef6bc0432a5fb93162] COMMAND Quit {

}
[1601211583.735][INFO]: [5087028e422e14ef6bc0432a5fb93162] RESPONSE Quit
